Type	Priority	Fail Chance	Actor Race	Target Race	Text	Conditional	Success	Notes
								All text made by Grassbasedgoose. Text Revised by RowdyBoye
WillingScream					"I'm so happy to be eaten by you, [ActorName]!" [TargetName] says, being further drawn into [ActorName].			
VoreAfterSex					"Mmmmmhhhh... [TargetName]... That was wonderful... Thank you for the sex and the food~" [ActorName] says.			
Shower					[ActorName] washes themselves despite already being clean.	s.Actor.Needs.Cleanliness < .1f		
Taste					[ActorName] leans in while sticking their tongue out. [TargetName] recoils, seemingly uninterested in the action.		No	
ResearchCommunication					[ActorName] looks up ways to get through annoying conversations.			
Insult					[ActorName] makes a backhanded compliment towards [TargetName].			
PredDistracted					[ActorName] hastily escapes from [TargetName], terrified of what they might do to [ActorHim].			
FinishUnbirth					[ActorName] lets out a moan as [ActorHis] [Pussy] finishes melting down [TargetName].			
StopFollowingMe					[ActorName] says goodbye as [ActorHe] parts ways with [TargetName] for the time being.			
CaressFace					[ActorName] gently rubs [TargetName]'s cheek.			
DoneFollowingYou					"I loved hanging out with you [TargetName], but I do need to go. Maybe we can hang out again later!" says [ActorName].			
ShoveIn					[ActorName] places their hands on [TargetName]'s prey and pushes them further inside [TargetHim]			
AreaVoreTease					[ActorName] looks around for anyone to potentially eat them before calling out: "Anyone want to eat me? I'm ready and willing!"			
AskThemToStrip					"Hey [TargetName], mind taking off your clothes so we can have some fun?" asks [ActorName]. "Uhhh... no thanks," [TargetName] says.		No	
BreakUp					"[TargetName], I don't think this is going to work out," [ActorName] says, their relationship coming to an end.			
Compliment					"[TargetName], you're a really nice person. I'm so glad I'm your friend!" [ActorName] says.	[TargetFriendshipTowardActor] > 0.5	Yes	
BrowseWeb					[ActorName] scrolls pages and pages of social media, not really sure what to do.			
InStomachEndo					[TargetName] leans against the fleshy walls surrounding them, relaxing inside of [ActorName].			
InBallsEndo					[TargetName] sits and lets themself soak in the cum surrounding their body.			
InAnusEndo					[TargetName] relaxes inside of [ActorName]'s ass, letting the warmth soothe them.			
InWombEndo					[TargetName] feels themself nearly drift off to sleep inside of [ActorName]'s [Pussy].			
AnalVoreRefused					[ActorName] failed to shove [TargetName] up [ActorHis] [Anus]. [TargetName] says that they aren't in the mood to be eaten at the moment.	s.Target.Personality.PreyWillingness > .7f		
CockVoreRefused					[ActorName] failed to shove [TargetName] inside of [ActorHis] [Dick]. [TargetName] says that they aren't in the mood to be eaten at the moment.	s.Target.Personality.PreyWillingness > .7f		
UnbirthRefused					[ActorName] failed to shove [TargetName] inside of [ActorHis] [Pussy]. [TargetName] says that they aren't in the mood to be eaten at the moment.	s.Target.Personality.PreyWillingness > .7f		
OralVoreRefused					[ActorName] failed to devour [TargetName]. [TargetName] says that they aren't in the mood to be eaten at the moment.	s.Target.Personality.PreyWillingness > .7f		
Flirt					[ActorName] flirts with [TargetName]. Despite [ActorName]'s efforts, [TargetName] looks disinterested.		No	
PreyEscapes					[TargetName] manages to barely escape from the depths of [ActorName].	[TargetHealthCritical]		
Compliment	99				"Will you just fuck off already, [ActorName]?!" [TargetName] shouts at [ActorName], clearly annoyed with them.	[TargetRejected] && s.Target.HasTrait("Jerk")	No	
WillingScream					"[PredatorOfActor], thank you so much for eating me!" [ActorName] says, trapped willingly inside [PredatorOfActor].	s.Actor.Personality.Voraphilia >= 0.5		
PredDistracted					[ActorName] makes their escape from [TargetName], who hasn't finished consuming them yet.			