Type	Priority	Fail Chance	Actor Race	Target Race	Text	Conditional	Success	Notes
//Self Actions								
Shower		0.6	Oni		[ActorName] takes a relaxing shower.			
Rest		0.5	Oni		[ActorName] slept in [ActorHis] bed and dreamed of winning a wrestling match.			
Rest		0.5	Oni		[ActorName] slept in [ActorHis] bed and dreamed of fighting monsters.			
Rest		0.5	Oni		[ActorName] slept in [ActorHis] bed and dreamed of relaxing at a spa.			
Scream		0.5	Oni		"How is it you managed to swallow such a strong being such as me?" yelled [ActorName]	[ActorWillingPrey] == false		
								
								
//Interactions								
Meet		0.15	Oni	Oni	[ActorName] introduced themselves to [TargetName]. "You're an oni too?  We should go rock climbing some time!"			
Meet		0.15	Oni	Oni	[ActorName] introduced themselves to [TargetName]. "Another oni, huh?  You look like fun!"			
Meet		0.15	Oni	Oni	[ActorName] introduced themselves to [TargetName]. "Ah, it's always great to meet a new friend!"			
Meet		0.15	Oni	Demi-Fox	[ActorName] introduced themselves to [TargetName]. "Ah, it's always interesting to meet a demi-fox"			
Meet		0.35	Demi-Human	Demi-Human	[ActorName] introduced themselves to [TargetName]. "Ah, it's always interesting to meet another demi-human"			
Talk		0.8	Oni	Oni	[ActorName] talked with [TargetName] about their daily lives as ogres.		Yes	
Flirt		0.6	Oni		[ActorName] flirted with [TargetName], giving a quick spin to show off [ActorHis] underwear.	[ActorInUnderwear]	Yes	
Flirt		0.7	Oni		[ActorName] flirted with [TargetName], enjoying the attention on [ActorHis] nude body.	[ActorNude]	Yes	
Flirt		0.7	Oni	Oni	[ActorName] flirted with [TargetName], flexing and comparing their muscles with [ActorHis].		Yes	
Hug		0.4	Oni	Oni	[ActorName] bear-hugged [TargetName] giving a big sweaty embrace.		Yes	
Hug		0.4	Oni	Oni	[ActorName] bear-hugged [TargetName] giving a big sweaty embrace.	[ActorNude] == true	Yes	
PreyBeg		0.75	Oni		"Let me out [TargetName]! Or I'll really give you a stomachache!" begged [ActorName] [TargetName] seems to consider what they said.		Yes	
SpitUpPrey		0.5		Oni	[ActorName] voluntarily spits [TargetName] back out, leaving them a little messy but still alive. [TargetName] partially forgives them.	[TargetFriendshipTowardActor] < -.19f && [ActorIsBeingEaten] == false		
SpitUpPrey		0.5		Oni	[ActorName] voluntarily spits [TargetName] back out, leaving them a little messy but still alive.	[TargetFriendshipTowardActor] >= -.19f && [ActorIsBeingEaten] == false		
Compliment		0.8		Oni	[ActorName] tells [TargetName] [ActorHeIs] impressed by the sharpness of [TargetHis] horns.		Yes	
Compliment		0.8		Oni	[ActorName] tells [TargetName] [ActorHeIs] impressed by the color of [TargetHis] [TargetCustom-Horn Color] horns.		Yes	
Compliment		0.8		Oni	[ActorName] tells [TargetName] [ActorHeIs] impressed by the width of [TargetHis] muscles.		Yes	
Insult		0.85		Oni	[ActorName] ridicules [TargetName]'s muscles.			
PleasedAtDisposal					"They gave you quite a workout, huh [TargetName]?" [ActorName] said.	[DisposalEnabled]		
PleasedAtDisposal					"Whoever they were, they're nothing but your muscles now! Oh, and a smelly pile." [ActorName] said.	[DisposalEnabled]		
UnexpectedDigestion		0.75	Oni		"[TargetName], you [TargetBastard], why are there acids coming in here, you were just going to hold me inside you for a while!  I'm not your protein boost!" yells [ActorName].			
OutragedAtOralVore			Oni		"You're eating [TargetName], [PredatorOfTarget]? That was supposed to be my meat!" says [ActorName] angrily.	[VoreKnowledge] && [ActorCanVore] && s.Actor.Personality.PredWillingness > .7f		
PreyWillingYell				Oni	"Process my body into your muscles, [TargetName]!" [ActorName] cries.	[TargetDigestsPrey]		
PreyWillingYell				Oni	"I hope I make you big and strong, [TargetName]!" [ActorName] cries.	[TargetDigestsPrey]		
PreyWillingYell				Oni	"I want to be nothing but meat for your body!" [ActorName] exclaims, squirming at the thought.	[TargetDigestsPrey]		
PreyWillingYell				Oni	"My body is all yours to turn into a big heap of slop, [TargetName]!" [ActorName] shouts.	[TargetDigestsPrey] && [DisposalEnabled]		
PreyWillingSquirm				Oni	[ActorName] cozily squirms inside of [TargetName], pleased to be fuel for a stronger oni.	[TargetDigestsPrey]		
								
								
//Vore Process Related								
VoreHunger		0.5	Oni		"I was really hungry, so and you looked like a great calorie boost."	s.Actor.Needs.Hunger > .6f		
OralBegin		0.7		Oni	[ActorName] grabs [TargetName] and lifts them into the air, preparing to eat them "Oh, you look like a tasty piece of meat, I think I'll just help myself."			
								
//Relating to Body Parts								
HeadDescription				Oni	[TargetName]'s [TargetEyeColor] eyes shine, and [TargetHeHas] [TargetHairLength] [TargetHairStyle] [TargetHairColor] hair, with [TargetCustom-Horn Number] [TargetCustom-Horn Color] horn adorning [TargetHis] head.			
HeadOralVore				Oni	[ActorName] shoves [TargetName]'s head into [ActorHis] jaws, horns and all.			
WaistDescription			Oni		Clothing completely covers [TargetHis] [WaistAdjective] waist.	[TargetFullyClothed]		
WaistDescription			Oni		Only underwear hides [TargetHis] nethers, leaving little to the imagination.	[TargetHasVagina] && [TargetInUnderwear]		
WaistDescription			Oni		[ActorHisCapitalized] nethers are on full display.	[TargetNude]		
WaistDescription			Oni		Only underwear hides [TargetHis] [Dick], leaving a clear outline.	[TargetHasDick] && [TargetInUnderwear]		
WaistDescription			Oni		[ActorHisCapitalized] member is on full display.	[TargetHasDick] && [TargetNude]		
								
//Sex Actions								
RubHair		0.25		Oni	[ActorName] rubs [TargetName]'s horns, causing [TargetHim] to sigh happily.			